[
  {
    "element-6066-11e4-a52e-4f735466cecf": "fd56d629-00d6-45a9-834d-76ef0ecfd80d"
  },
  {
    "element-6066-11e4-a52e-4f735466cecf": "6d75e553-a828-46e8-80e6-c74709eff103"
  },
  {
    "element-6066-11e4-a52e-4f735466cecf": "1393c495-d0eb-44e1-94ac-77759635c94f"
  },
  {
    "element-6066-11e4-a52e-4f735466cecf": "c12b8aaf-2869-4cd8-a286-270e49a2463d"
  },
  {
    "element-6066-11e4-a52e-4f735466cecf": "810a2f58-91dd-4e9b-ac7c-30cb457966f5"
  },
  {
    "element-6066-11e4-a52e-4f735466cecf": "e7376731-48dc-48e5-bf2b-7da77f39ee2c"
  },
  {
    "element-6066-11e4-a52e-4f735466cecf": "74b22971-ca8b-4359-9dde-87ab7134ef4d"
  },
  {
    "element-6066-11e4-a52e-4f735466cecf": "89846b05-2575-4a07-b22c-6003f7df0128"
  },
  {
    "element-6066-11e4-a52e-4f735466cecf": "bebef700-e573-4a92-90f7-a7a5e1e87782"
  },
  {
    "element-6066-11e4-a52e-4f735466cecf": "299bf7b8-a558-4fb6-bf62-8e8d4773e353"
  },
  {
    "element-6066-11e4-a52e-4f735466cecf": "3eed6647-a97b-47d1-863d-3d9bfde44b7e"
  },
  {
    "element-6066-11e4-a52e-4f735466cecf": "3c27c881-10d9-45ea-aad8-602507315b73"
  },
  {
    "element-6066-11e4-a52e-4f735466cecf": "8c8e887c-ca8f-44d6-93a8-d30e13006aef"
  },
  {
    "element-6066-11e4-a52e-4f735466cecf": "c30ea564-830b-4e60-b16e-0f38af77f07d"
  },
  {
    "element-6066-11e4-a52e-4f735466cecf": "fc23c303-7bf2-4d9d-8df2-1889b7f64582"
  },
  {
    "element-6066-11e4-a52e-4f735466cecf": "2fc02e9a-4d53-4efc-8001-d7e25da58dd5"
  },
  {
    "element-6066-11e4-a52e-4f735466cecf": "e679b113-30ae-4968-b3d5-fcede0292a30"
  },
  {
    "element-6066-11e4-a52e-4f735466cecf": "bec9ce14-8a6c-4a8e-b5fb-9ef6207f7e5a"
  },
  {
    "element-6066-11e4-a52e-4f735466cecf": "79981723-fa57-42cf-8728-c55bc6c956b5"
  },
  {
    "element-6066-11e4-a52e-4f735466cecf": "aee823b2-9fa8-4991-8c32-92524eba1daf"
  },
  {
    "element-6066-11e4-a52e-4f735466cecf": "7177013e-7693-4d05-9353-fe293c35bd2b"
  },
  {
    "element-6066-11e4-a52e-4f735466cecf": "5a0d2505-c4e5-48ad-b4b2-dd933faff050"
  },
  {
    "element-6066-11e4-a52e-4f735466cecf": "c0bac90b-73b6-4198-b0b2-5a5d8008b2c3"
  },
  {
    "element-6066-11e4-a52e-4f735466cecf": "16937b17-411a-4baf-990c-e6d356bcfc1a"
  },
  {
    "element-6066-11e4-a52e-4f735466cecf": "e6425c73-826f-4201-bec1-9b7975b76879"
  },
  {
    "element-6066-11e4-a52e-4f735466cecf": "c0e673ef-a49f-4940-b106-439c9ebc39f2"
  },
  {
    "element-6066-11e4-a52e-4f735466cecf": "0adc6bcb-dfa6-478a-bed1-0e1a06add2a1"
  },
  {
    "element-6066-11e4-a52e-4f735466cecf": "35adcc21-e799-402c-bdca-6a8cb23375ca"
  },
  {
    "element-6066-11e4-a52e-4f735466cecf": "4946c1e0-78a9-4ee1-91e5-5bde5fb90b19"
  },
  {
    "element-6066-11e4-a52e-4f735466cecf": "e0a966f0-02d0-4989-9672-5a7af771ff86"
  },
  {
    "element-6066-11e4-a52e-4f735466cecf": "135a0ca2-74eb-41ed-ae87-8853a0302c4b"
  },
  {
    "element-6066-11e4-a52e-4f735466cecf": "f3ba3a25-3786-4fb0-86b7-1f482fad8a79"
  },
  {
    "element-6066-11e4-a52e-4f735466cecf": "356ca289-621e-4b90-8721-58855d534b00"
  },
  {
    "element-6066-11e4-a52e-4f735466cecf": "1ff672aa-aaa0-4406-9617-b8ee3c395a34"
  },
  {
    "element-6066-11e4-a52e-4f735466cecf": "be19756a-9f5e-48f8-bace-557bf19ef2fd"
  },
  {
    "element-6066-11e4-a52e-4f735466cecf": "6760f6ab-8a98-46d4-98e3-d8b089f07192"
  },
  {
    "element-6066-11e4-a52e-4f735466cecf": "d2f51239-1d1c-4a52-a38b-22c0bdefd80e"
  },
  {
    "element-6066-11e4-a52e-4f735466cecf": "88bda669-ae35-4f34-92a4-a993e133a9d7"
  },
  {
    "element-6066-11e4-a52e-4f735466cecf": "1c8d4706-47b3-4bcc-96de-90ed1e057a09"
  },
  {
    "element-6066-11e4-a52e-4f735466cecf": "e8ecbd84-feef-40d6-8b58-519bde95846a"
  },
  {
    "element-6066-11e4-a52e-4f735466cecf": "2ad2fafd-7e9b-4668-8880-cf7f70d537a5"
  }
]