[
  {
    "element-6066-11e4-a52e-4f735466cecf": "56a8fd35-5e9c-4fed-934d-3c9e71b7ae2f"
  },
  {
    "element-6066-11e4-a52e-4f735466cecf": "0c5a069c-a8df-4428-bb2a-5edba5ebc50a"
  },
  {
    "element-6066-11e4-a52e-4f735466cecf": "df35a3fd-e911-44ad-9810-a5123c175502"
  },
  {
    "element-6066-11e4-a52e-4f735466cecf": "4efe4fa0-cd7b-4bcd-8d44-fc8419c630bb"
  },
  {
    "element-6066-11e4-a52e-4f735466cecf": "7cd5a94f-c48f-49f4-90a6-7f608b624319"
  }
]