{
  "actions": [
    {
      "type": "pointer",
      "id": "pointer1",
      "parameters": {
        "pointerType": "mouse"
      },
      "actions": [
        {
          "type": "pointerMove",
          "origin": {
            "sessionId": "a484956374e4e441522f2dd620c71819",
            "elementId": "668fcabe-765f-4e27-82f0-72bbe0ad5530",
            "element-6066-11e4-a52e-4f735466cecf": "668fcabe-765f-4e27-82f0-72bbe0ad5530",
            "selector": "a[data-e2e-id = \"/en-be/business/showroom/?fuelTypes=electric\"]",
            "parent": {
              "sessionId": "a484956374e4e441522f2dd620c71819",
              "capabilities": {
                "acceptInsecureCerts": true,
                "browserName": "chrome",
                "browserVersion": "88.0.4324.190",
                "chrome": {
                  "chromedriverVersion": "88.0.4324.96 (68dba2d8a0b149a1d3afac56fa74648032bcf46b-refs/branch-heads/4324@{#1784})",
                  "userDataDir": "C:\\Users\\atish\\AppData\\Local\\Temp\\scoped_dir12964_1316103491"
                },
                "goog:chromeOptions": {
                  "debuggerAddress": "localhost:57235"
                },
                "networkConnectionEnabled": false,
                "pageLoadStrategy": "normal",
                "platformName": "windows",
                "proxy": {},
                "setWindowRect": true,
                "strictFileInteractability": false,
                "timeouts": {
                  "implicit": 0,
                  "pageLoad": 300000,
                  "script": 30000
                },
                "unhandledPromptBehavior": "dismiss and notify",
                "webauthn:extension:largeBlob": true,
                "webauthn:virtualAuthenticators": true,
                "webdriver.remote.sessionid": "a484956374e4e441522f2dd620c71819"
              },
              "config": {
                "specs": [
                  "./features/**/*.feature"
                ],
                "suites": {},
                "exclude": [],
                "logLevel": "warn",
                "logLevels": {},
                "excludeDriverLogs": [],
                "bail": 0,
                "waitforInterval": 500,
                "waitforTimeout": 10000,
                "framework": "cucumber",
                "reporters": [
                  "spec",
                  [
                    "allure",
                    {
                      "outputDir": "allure-results"
                    }
                  ]
                ],
                "services": [
                  "selenium-standalone"
                ],
                "maxInstances": 10,
                "maxInstancesPerCapability": 100,
                "filesToWatch": [],
                "connectionRetryTimeout": 120000,
                "connectionRetryCount": 3,
                "execArgv": [],
                "runnerEnv": {},
                "runner": "local",
                "specFileRetries": 0,
                "specFileRetriesDelay": 0,
                "specFileRetriesDeferred": false,
                "reporterSyncInterval": 100,
                "reporterSyncTimeout": 5000,
                "cucumberFeaturesWithLineNumbers": [],
                "autoCompileOpts": {
                  "autoCompile": true,
                  "tsNodeOpts": {
                    "transpileOnly": true
                  },
                  "babelOpts": {}
                },
                "mochaOpts": {
                  "timeout": 10000
                },
                "jasmineOpts": {
                  "defaultTimeoutInterval": 10000
                },
                "cucumberOpts": {
                  "timeout": 60000,
                  "require": [
                    "./features/step-definitions/*.js"
                  ],
                  "backtrace": false,
                  "requireModule": [],
                  "dryRun": false,
                  "failFast": false,
                  "format": [
                    "pretty"
                  ],
                  "snippets": true,
                  "source": true,
                  "profile": [],
                  "strict": false,
                  "tagExpression": "",
                  "ignoreUndefinedDefinitions": false
                },
                "onPrepare": [],
                "onWorkerStart": [],
                "before": [],
                "beforeSession": [],
                "beforeSuite": [],
                "beforeHook": [],
                "beforeTest": [],
                "beforeCommand": [],
                "afterCommand": [],
                "afterTest": [],
                "afterHook": [],
                "afterSuite": [],
                "afterSession": [],
                "after": [],
                "onComplete": [],
                "onReload": [],
                "beforeFeature": [],
                "beforeScenario": [],
                "beforeStep": [],
                "afterStep": [
                  null
                ],
                "afterScenario": [],
                "afterFeature": [],
                "baseUrl": "https://www.leaseplan.com/en-be/business/showroom/;",
                "_": [
                  "wdio.conf.js"
                ],
                "$0": "node_modules\\@wdio\\cli\\bin\\wdio.js",
                "ignoredWorkerServices": []
              },
              "_NOT_FIBER": false
            },
            "isReactElement": false
          },
          "x": 0,
          "y": 0
        },
        {
          "type": "pointerDown",
          "button": 0
        },
        {
          "type": "pointerUp",
          "button": 0
        }
      ]
    }
  ]
}