[
  {
    "element-6066-11e4-a52e-4f735466cecf": "a4c4efd4-1b66-4d44-a2c8-ee1544a6b0e3"
  },
  {
    "element-6066-11e4-a52e-4f735466cecf": "6aa7ff59-0b2a-464f-bd9c-1993a34d646f"
  },
  {
    "element-6066-11e4-a52e-4f735466cecf": "4a18cd79-038b-4472-a1c5-3675ba738b18"
  },
  {
    "element-6066-11e4-a52e-4f735466cecf": "aaa06bdd-c794-40f5-87b0-4bcd7d51755d"
  },
  {
    "element-6066-11e4-a52e-4f735466cecf": "b26cc181-0602-4f2d-81ab-204851a7513d"
  },
  {
    "element-6066-11e4-a52e-4f735466cecf": "835e1009-c1e8-4d4d-9733-a59ffc5130e5"
  },
  {
    "element-6066-11e4-a52e-4f735466cecf": "665909af-eb39-4064-8002-c5b4ece60cbc"
  },
  {
    "element-6066-11e4-a52e-4f735466cecf": "ac9795b7-99a9-4364-8855-7a0f48ee3101"
  },
  {
    "element-6066-11e4-a52e-4f735466cecf": "71dc1dba-a8cf-40f8-8e3d-21de4141fb7a"
  },
  {
    "element-6066-11e4-a52e-4f735466cecf": "5e6d8fe3-91be-4fe2-a31a-139e11ad052b"
  },
  {
    "element-6066-11e4-a52e-4f735466cecf": "04de357a-23bc-4a81-afe0-4f7799d741d8"
  },
  {
    "element-6066-11e4-a52e-4f735466cecf": "cb353703-74eb-40b5-948e-643ccd741644"
  },
  {
    "element-6066-11e4-a52e-4f735466cecf": "5edcb31c-2efb-4c4f-915b-3a00a3c7579f"
  },
  {
    "element-6066-11e4-a52e-4f735466cecf": "c7f29d79-3ff6-4a28-bb64-77649b76013d"
  },
  {
    "element-6066-11e4-a52e-4f735466cecf": "01ee9929-7cc6-4f2c-8aa5-126a6f60fc48"
  },
  {
    "element-6066-11e4-a52e-4f735466cecf": "abd6d7e8-7b3e-4519-b798-3c0f54d14420"
  },
  {
    "element-6066-11e4-a52e-4f735466cecf": "f6bd2488-d793-45c1-944b-3ac113a7a9f5"
  },
  {
    "element-6066-11e4-a52e-4f735466cecf": "fe066da3-2d26-40fc-906c-f57c2dbf03df"
  },
  {
    "element-6066-11e4-a52e-4f735466cecf": "d8142266-4a77-45b4-ba72-858df76b991b"
  },
  {
    "element-6066-11e4-a52e-4f735466cecf": "947b11ab-2b57-44bd-bc53-3e9c39442cba"
  },
  {
    "element-6066-11e4-a52e-4f735466cecf": "37b85046-f51f-4f43-9e77-3ce3af2683ba"
  },
  {
    "element-6066-11e4-a52e-4f735466cecf": "d27d53fa-ee17-4bbe-8112-28deeed95277"
  },
  {
    "element-6066-11e4-a52e-4f735466cecf": "4856b8d0-97d5-46cd-b56a-be3bdf78740b"
  },
  {
    "element-6066-11e4-a52e-4f735466cecf": "104b256b-2200-4759-8683-6b06e8aec2bd"
  },
  {
    "element-6066-11e4-a52e-4f735466cecf": "4e34a821-c96e-45b8-9ecc-a9aa0e44538c"
  },
  {
    "element-6066-11e4-a52e-4f735466cecf": "55be36cd-2912-4200-a325-f5c4f54a4e5a"
  },
  {
    "element-6066-11e4-a52e-4f735466cecf": "db9e0a11-09f0-4e1d-9ce5-a6f41c854c14"
  },
  {
    "element-6066-11e4-a52e-4f735466cecf": "c194f3dd-b308-4ced-a22f-7275d5748e4a"
  },
  {
    "element-6066-11e4-a52e-4f735466cecf": "dab54b31-5700-4ddd-a5f3-ee19abe647c0"
  },
  {
    "element-6066-11e4-a52e-4f735466cecf": "c3fe50f4-ab71-4dd1-a7ea-89008fac65ba"
  },
  {
    "element-6066-11e4-a52e-4f735466cecf": "2bf6c526-8718-4566-a45b-b7ed55aff6c0"
  },
  {
    "element-6066-11e4-a52e-4f735466cecf": "7ae4be50-7626-457c-81bb-33e1f6f1c509"
  },
  {
    "element-6066-11e4-a52e-4f735466cecf": "418dd66b-1d59-48b7-83b9-d0a5ebdb27cd"
  },
  {
    "element-6066-11e4-a52e-4f735466cecf": "46b9e887-3b02-4473-b240-5dd018c3bafa"
  },
  {
    "element-6066-11e4-a52e-4f735466cecf": "ceb77982-e424-406e-a385-5f86cec4cbd7"
  },
  {
    "element-6066-11e4-a52e-4f735466cecf": "b9c0d67b-625d-43a4-a835-355d4dbcd515"
  },
  {
    "element-6066-11e4-a52e-4f735466cecf": "004b80cb-56de-4af2-9558-2b87b282859c"
  },
  {
    "element-6066-11e4-a52e-4f735466cecf": "5bfe79f6-f249-46f1-b922-a9a812e6cd5c"
  },
  {
    "element-6066-11e4-a52e-4f735466cecf": "11fce7d7-63dc-4e59-a7d6-ca7e576e00ff"
  },
  {
    "element-6066-11e4-a52e-4f735466cecf": "541a12d1-04bf-41a8-b45a-37c31b01c219"
  },
  {
    "element-6066-11e4-a52e-4f735466cecf": "2b1d974d-3007-4091-b64b-5709c5adbd54"
  }
]