[ {
  "uid" : "db7a0b515facbda9",
  "name" : "",
  "time" : {
    "start" : 1614724999611,
    "stop" : 1614724999611,
    "duration" : 0
  },
  "status" : "passed",
  "severity" : "normal"
}, {
  "uid" : "67e0ad41db669573",
  "name" : "Then Car with \"Audi Q3\" should be present in search list",
  "time" : {
    "start" : 1614724912921,
    "stop" : 1614724916135,
    "duration" : 3214
  },
  "status" : "passed",
  "severity" : "normal"
}, {
  "uid" : "bcf83e966dabfa5c",
  "name" : "",
  "time" : {
    "start" : 1614724873744,
    "stop" : 1614724873745,
    "duration" : 1
  },
  "status" : "passed",
  "severity" : "normal"
}, {
  "uid" : "53f6854d17caa2f2",
  "name" : "When I click on reset button",
  "time" : {
    "start" : 1614725036170,
    "stop" : 1614725041569,
    "duration" : 5399
  },
  "status" : "passed",
  "severity" : "normal"
}, {
  "uid" : "e0b6ef90a4195bf1",
  "name" : "When I click on accept cookies",
  "time" : {
    "start" : 1614724968437,
    "stop" : 1614724970044,
    "duration" : 1607
  },
  "status" : "passed",
  "severity" : "normal"
}, {
  "uid" : "98d4c9e08116b4e0",
  "name" : "Given I navigate to Business Showroom page",
  "time" : {
    "start" : 1614724999708,
    "stop" : 1614725014560,
    "duration" : 14852
  },
  "status" : "passed",
  "severity" : "normal"
}, {
  "uid" : "3e008c1f604bf51b",
  "name" : "And Set price range \"300\" to \"3000\"",
  "time" : {
    "start" : 1614724974257,
    "stop" : 1614724992793,
    "duration" : 18536
  },
  "status" : "passed",
  "severity" : "normal"
}, {
  "uid" : "7ac23a1a1c179431",
  "name" : "When I click on accept cookies",
  "time" : {
    "start" : 1614725012143,
    "stop" : 1614725013908,
    "duration" : 1765
  },
  "status" : "passed",
  "severity" : "normal"
}, {
  "uid" : "316c0b81b1c6087f",
  "name" : "And Set price range \"300\" to \"3000\"",
  "time" : {
    "start" : 1614724933933,
    "stop" : 1614724950741,
    "duration" : 16808
  },
  "status" : "passed",
  "severity" : "normal"
}, {
  "uid" : "6b46d352483c1abb",
  "name" : "When I click on accept cookies",
  "time" : {
    "start" : 1614724823706,
    "stop" : 1614724826215,
    "duration" : 2509
  },
  "status" : "passed",
  "severity" : "normal"
}, {
  "uid" : "f330633a0f9fad79",
  "name" : "When I click on link \"Electric\" cars",
  "time" : {
    "start" : 1614724851295,
    "stop" : 1614724855785,
    "duration" : 4490
  },
  "status" : "passed",
  "severity" : "normal"
}, {
  "uid" : "ed1d21acc6f8a2b7",
  "name" : "Then It should display atleast \"400\" cars",
  "time" : {
    "start" : 1614724833408,
    "stop" : 1614724834560,
    "duration" : 1152
  },
  "status" : "passed",
  "severity" : "normal"
}, {
  "uid" : "606dc21e2579d065",
  "name" : "Given I navigate to Business Showroom page",
  "time" : {
    "start" : 1614724957266,
    "stop" : 1614724971623,
    "duration" : 14357
  },
  "status" : "passed",
  "severity" : "normal"
}, {
  "uid" : "213d1407a7497966",
  "name" : "",
  "time" : {
    "start" : 1614725042105,
    "stop" : 1614725042105,
    "duration" : 0
  },
  "status" : "passed",
  "severity" : "normal"
}, {
  "uid" : "da905041cf20d87a",
  "name" : "And Set price range \"300\" to \"3000\"",
  "time" : {
    "start" : 1614724976718,
    "stop" : 1614724995252,
    "duration" : 18534
  },
  "status" : "passed",
  "severity" : "normal"
}, {
  "uid" : "31d2d85cb5a92b47",
  "name" : "When I click on accept cookies",
  "time" : {
    "start" : 1614724823993,
    "stop" : 1614724827079,
    "duration" : 3086
  },
  "status" : "passed",
  "severity" : "normal"
}, {
  "uid" : "ffc98bc1f6ce6a60",
  "name" : "Given I navigate to Business Showroom page",
  "time" : {
    "start" : 1614724952328,
    "stop" : 1614724968437,
    "duration" : 16109
  },
  "status" : "passed",
  "severity" : "normal"
}, {
  "uid" : "1627724eae5ecfa5",
  "name" : "Then It should display atleast \"20\" cars",
  "time" : {
    "start" : 1614724873080,
    "stop" : 1614724873744,
    "duration" : 664
  },
  "status" : "passed",
  "severity" : "normal"
}, {
  "uid" : "17da55d35585c340",
  "name" : "And Set price range \"300\" to \"3000\"",
  "time" : {
    "start" : 1614724856123,
    "stop" : 1614724874324,
    "duration" : 18201
  },
  "status" : "passed",
  "severity" : "normal"
}, {
  "uid" : "4e7bfbf8fefc049d",
  "name" : "",
  "time" : {
    "start" : 1614725038947,
    "stop" : 1614725038951,
    "duration" : 4
  },
  "status" : "passed",
  "severity" : "normal"
}, {
  "uid" : "69609b335ec4b774",
  "name" : "Given I navigate to Business Showroom page",
  "time" : {
    "start" : 1614724833827,
    "stop" : 1614724849764,
    "duration" : 15937
  },
  "status" : "passed",
  "severity" : "normal"
}, {
  "uid" : "67832f694cee9a6a",
  "name" : "And Set price range \"300\" to \"3000\"",
  "time" : {
    "start" : 1614725018024,
    "stop" : 1614725036169,
    "duration" : 18145
  },
  "status" : "passed",
  "severity" : "normal"
}, {
  "uid" : "e721c5b02c1bb706",
  "name" : "When I click on accept cookies",
  "time" : {
    "start" : 1614724971623,
    "stop" : 1614724973223,
    "duration" : 1600
  },
  "status" : "passed",
  "severity" : "normal"
}, {
  "uid" : "cbc91552fd6b48a3",
  "name" : "Then It should display atleast \"400\" cars",
  "time" : {
    "start" : 1614724874325,
    "stop" : 1614724874998,
    "duration" : 673
  },
  "status" : "passed",
  "severity" : "normal"
}, {
  "uid" : "290b811b6a92935c",
  "name" : "When I click on reset button",
  "time" : {
    "start" : 1614724992793,
    "stop" : 1614724998567,
    "duration" : 5774
  },
  "status" : "passed",
  "severity" : "normal"
}, {
  "uid" : "ebb01dd3c8991777",
  "name" : "When I click on accept cookies",
  "time" : {
    "start" : 1614724928039,
    "stop" : 1614724929868,
    "duration" : 1829
  },
  "status" : "passed",
  "severity" : "normal"
}, {
  "uid" : "4e7355573bedf4b4",
  "name" : "Then All filters should be reset",
  "time" : {
    "start" : 1614724998568,
    "stop" : 1614724999611,
    "duration" : 1043
  },
  "status" : "passed",
  "severity" : "normal"
}, {
  "uid" : "18fbe26acda06dee",
  "name" : "Given I navigate to Business Showroom page",
  "time" : {
    "start" : 1614724834744,
    "stop" : 1614724850242,
    "duration" : 15498
  },
  "status" : "passed",
  "severity" : "normal"
}, {
  "uid" : "cad29b46aebbc049",
  "name" : "When I click on accept cookies",
  "time" : {
    "start" : 1614724849766,
    "stop" : 1614724851295,
    "duration" : 1529
  },
  "status" : "passed",
  "severity" : "normal"
}, {
  "uid" : "df9c6cb8f4dc2f6",
  "name" : "Then Car with \"BMW 3\" should be present in search list",
  "time" : {
    "start" : 1614724953637,
    "stop" : 1614724957154,
    "duration" : 3517
  },
  "status" : "passed",
  "severity" : "normal"
}, {
  "uid" : "7549b10208c1b119",
  "name" : "Then All filters should be reset",
  "time" : {
    "start" : 1614725041569,
    "stop" : 1614725042105,
    "duration" : 536
  },
  "status" : "passed",
  "severity" : "normal"
}, {
  "uid" : "c2ab0aefa506807b",
  "name" : "Given I navigate to Business Showroom page",
  "time" : {
    "start" : 1614724912790,
    "stop" : 1614724928039,
    "duration" : 15249
  },
  "status" : "passed",
  "severity" : "normal"
}, {
  "uid" : "83a96ebe615bf8c8",
  "name" : "Given I navigate to Business Showroom page",
  "time" : {
    "start" : 1614724803642,
    "stop" : 1614724823993,
    "duration" : 20351
  },
  "status" : "passed",
  "severity" : "normal"
}, {
  "uid" : "88320e3b92aee655",
  "name" : "When I click on accept cookies",
  "time" : {
    "start" : 1614724850243,
    "stop" : 1614724851874,
    "duration" : 1631
  },
  "status" : "passed",
  "severity" : "normal"
}, {
  "uid" : "8ada0c68905c7ece",
  "name" : "",
  "time" : {
    "start" : 1614724834561,
    "stop" : 1614724834569,
    "duration" : 8
  },
  "status" : "passed",
  "severity" : "normal"
}, {
  "uid" : "d99cf49a9850005e",
  "name" : "",
  "time" : {
    "start" : 1614724997187,
    "stop" : 1614724997188,
    "duration" : 1
  },
  "status" : "passed",
  "severity" : "normal"
}, {
  "uid" : "8e5aafd4aa265eb9",
  "name" : "",
  "time" : {
    "start" : 1614724952268,
    "stop" : 1614724952269,
    "duration" : 1
  },
  "status" : "passed",
  "severity" : "normal"
}, {
  "uid" : "7a53df8f91ad981e",
  "name" : "Then Car with \"Volvo Xc40\" should be present in search list",
  "time" : {
    "start" : 1614724995253,
    "stop" : 1614724997186,
    "duration" : 1933
  },
  "status" : "passed",
  "severity" : "normal"
}, {
  "uid" : "93cdd9da2cf0cde8",
  "name" : "Then Car with \"Polestar 2\" and \"78 KWH DUAL MOTOR LAUNCH\" should be present in search list",
  "time" : {
    "start" : 1614724911008,
    "stop" : 1614724912706,
    "duration" : 1698
  },
  "status" : "passed",
  "severity" : "normal"
}, {
  "uid" : "87124cc984749002",
  "name" : "Given I navigate to Business Showroom page",
  "time" : {
    "start" : 1614724803639,
    "stop" : 1614724823706,
    "duration" : 20067
  },
  "status" : "passed",
  "severity" : "normal"
}, {
  "uid" : "beed6bb0940383b4",
  "name" : "And Set price range \"500\" to \"3500\"",
  "time" : {
    "start" : 1614725020055,
    "stop" : 1614725037177,
    "duration" : 17122
  },
  "status" : "passed",
  "severity" : "normal"
}, {
  "uid" : "e42616d65bfbbef",
  "name" : "Then Car with \"Volkswagen Id.3\" and \"58 KWH PRO LIFE\" should be present in search list",
  "time" : {
    "start" : 1614724950741,
    "stop" : 1614724952268,
    "duration" : 1527
  },
  "status" : "passed",
  "severity" : "normal"
}, {
  "uid" : "a46524692e641610",
  "name" : "",
  "time" : {
    "start" : 1614724874999,
    "stop" : 1614724875001,
    "duration" : 2
  },
  "status" : "passed",
  "severity" : "normal"
}, {
  "uid" : "ac5a62942328cf40",
  "name" : "When I click on link \"Hybrid\" cars",
  "time" : {
    "start" : 1614725013908,
    "stop" : 1614725018024,
    "duration" : 4116
  },
  "status" : "passed",
  "severity" : "normal"
}, {
  "uid" : "ed019e463f6c32aa",
  "name" : "And Set price range \"300\" to \"3000\"",
  "time" : {
    "start" : 1614724855785,
    "stop" : 1614724873079,
    "duration" : 17294
  },
  "status" : "passed",
  "severity" : "normal"
}, {
  "uid" : "d644c3cdd9648620",
  "name" : "When I click on link \"Electric\" cars",
  "time" : {
    "start" : 1614725016238,
    "stop" : 1614725020055,
    "duration" : 3817
  },
  "status" : "passed",
  "severity" : "normal"
}, {
  "uid" : "d0acf752a730c729",
  "name" : "Then It should display atleast \"200\" cars",
  "time" : {
    "start" : 1614724833039,
    "stop" : 1614724833792,
    "duration" : 753
  },
  "status" : "passed",
  "severity" : "normal"
}, {
  "uid" : "5a4eb3f2be7def22",
  "name" : "When I click on link \"Electric\" cars",
  "time" : {
    "start" : 1614724970044,
    "stop" : 1614724974257,
    "duration" : 4213
  },
  "status" : "passed",
  "severity" : "normal"
}, {
  "uid" : "d6630c7642a7136b",
  "name" : "When I click on link \"Electric\" cars",
  "time" : {
    "start" : 1614724826215,
    "stop" : 1614724833039,
    "duration" : 6824
  },
  "status" : "passed",
  "severity" : "normal"
}, {
  "uid" : "152d6cc8e4d43314",
  "name" : "",
  "time" : {
    "start" : 1614724833792,
    "stop" : 1614724833792,
    "duration" : 0
  },
  "status" : "passed",
  "severity" : "normal"
}, {
  "uid" : "bc7ce9a68142f213",
  "name" : "When I click on accept cookies",
  "time" : {
    "start" : 1614725014560,
    "stop" : 1614725016238,
    "duration" : 1678
  },
  "status" : "passed",
  "severity" : "normal"
}, {
  "uid" : "c3cf2ca011b1e43d",
  "name" : "When I click on link \"Electric\" cars",
  "time" : {
    "start" : 1614724929868,
    "stop" : 1614724933932,
    "duration" : 4064
  },
  "status" : "passed",
  "severity" : "normal"
}, {
  "uid" : "e78c02878702b519",
  "name" : "When I click on link \"Hybrid\" cars",
  "time" : {
    "start" : 1614724851874,
    "stop" : 1614724856123,
    "duration" : 4249
  },
  "status" : "passed",
  "severity" : "normal"
}, {
  "uid" : "841c54ca184f0515",
  "name" : "Then Car with \"Volkswagen Id.3\" and \"58 KWH PRO LIFE\" should not be present in search list",
  "time" : {
    "start" : 1614725037177,
    "stop" : 1614725038947,
    "duration" : 1770
  },
  "status" : "passed",
  "severity" : "normal"
}, {
  "uid" : "2bb6c8bea9bf9088",
  "name" : "Given I navigate to Business Showroom page",
  "time" : {
    "start" : 1614724997290,
    "stop" : 1614725012143,
    "duration" : 14853
  },
  "status" : "passed",
  "severity" : "normal"
}, {
  "uid" : "67a5d98877be5419",
  "name" : "When I click on link \"Hybrid\" cars",
  "time" : {
    "start" : 1614724973223,
    "stop" : 1614724976718,
    "duration" : 3495
  },
  "status" : "passed",
  "severity" : "normal"
}, {
  "uid" : "ba510f69826e98c1",
  "name" : "When I click on link \"Hybrid\" cars",
  "time" : {
    "start" : 1614724827079,
    "stop" : 1614724833408,
    "duration" : 6329
  },
  "status" : "passed",
  "severity" : "normal"
} ]