{
  "reportName" : "Allure Report",
  "testRuns" : [ ],
  "statistic" : {
    "failed" : 0,
    "broken" : 0,
    "skipped" : 0,
    "passed" : 57,
    "unknown" : 0,
    "total" : 57
  },
  "time" : {
    "start" : 1614724803639,
    "stop" : 1614725042105,
    "duration" : 238466,
    "minDuration" : 0,
    "maxDuration" : 20351,
    "sumDuration" : 360414
  }
}