{
  "script": "return ((minStyleattr,maxStyleattr) => {\r\n            document.querySelector('.rc-slider-handle.rc-slider-handle-1')\r\n                .setAttribute('style', minStyleattr)\r\n                   \r\n            document.querySelector('.rc-slider-handle.rc-slider-handle-2')\r\n                .setAttribute('style', maxStyleattr);\r\n            \r\n\r\n        }).apply(null, arguments)",
  "args": [
    "left: 2.73224%",
    "left: 76.50273%"
  ]
}