[
  {
    "element-6066-11e4-a52e-4f735466cecf": "83711e86-985e-4918-94e0-ef00bdc09ccb"
  },
  {
    "element-6066-11e4-a52e-4f735466cecf": "19a13027-675a-44fb-8e1d-312288f00754"
  },
  {
    "element-6066-11e4-a52e-4f735466cecf": "2389efdb-29aa-4095-abea-6e48113fb077"
  },
  {
    "element-6066-11e4-a52e-4f735466cecf": "7978f677-0be8-4430-987d-da5670c2dae3"
  },
  {
    "element-6066-11e4-a52e-4f735466cecf": "9f025327-acc2-4258-a2cb-ef5c8800103c"
  },
  {
    "element-6066-11e4-a52e-4f735466cecf": "a297afa0-2e96-4e33-9d3c-a90c895b27cf"
  },
  {
    "element-6066-11e4-a52e-4f735466cecf": "f56d23da-081c-474b-9635-5c47bfdc8f69"
  },
  {
    "element-6066-11e4-a52e-4f735466cecf": "881e5947-9773-47b7-a8fd-983f8a4c0909"
  },
  {
    "element-6066-11e4-a52e-4f735466cecf": "41feea86-e30e-4d89-a21f-81b1aa52fa5f"
  },
  {
    "element-6066-11e4-a52e-4f735466cecf": "b0fcba37-09ca-42d4-91e4-1b69f381314f"
  },
  {
    "element-6066-11e4-a52e-4f735466cecf": "c2e14f35-b8ba-41b8-992e-f6e348c56d03"
  },
  {
    "element-6066-11e4-a52e-4f735466cecf": "5886caf6-5525-4228-9c34-b46bb41b60cb"
  }
]