[
  {
    "element-6066-11e4-a52e-4f735466cecf": "c0362cc2-6a3b-449e-95cc-90733dd31d02"
  },
  {
    "element-6066-11e4-a52e-4f735466cecf": "0c2c0f35-687d-4a38-b455-e199ee67823c"
  },
  {
    "element-6066-11e4-a52e-4f735466cecf": "11175d74-da8c-4e3c-9357-3ba6bd3c1388"
  },
  {
    "element-6066-11e4-a52e-4f735466cecf": "e93d8107-5098-4a8e-ad5a-e70b67fb59aa"
  },
  {
    "element-6066-11e4-a52e-4f735466cecf": "cd3780b8-2b1c-4470-b79a-722f46c281cc"
  },
  {
    "element-6066-11e4-a52e-4f735466cecf": "995a2334-adc7-4a44-9087-024f9ef69091"
  },
  {
    "element-6066-11e4-a52e-4f735466cecf": "48bea564-afd6-4241-9f7c-6fcc8ce80fe4"
  },
  {
    "element-6066-11e4-a52e-4f735466cecf": "3c6b8d7f-f3f3-4dda-bdbc-2cc78f672936"
  },
  {
    "element-6066-11e4-a52e-4f735466cecf": "9d933ab7-442a-4fbe-8d6b-536386fdbd6f"
  },
  {
    "element-6066-11e4-a52e-4f735466cecf": "fa213864-324c-48c1-af70-38b79aa19ce9"
  },
  {
    "element-6066-11e4-a52e-4f735466cecf": "58bc5526-5cf7-4f70-b6e1-d56400eef838"
  },
  {
    "element-6066-11e4-a52e-4f735466cecf": "5a170499-7e77-4a1f-ad7a-9e3c8103826a"
  },
  {
    "element-6066-11e4-a52e-4f735466cecf": "bfa2f561-2b7e-452f-9636-b7a3d65d4dd1"
  },
  {
    "element-6066-11e4-a52e-4f735466cecf": "846f6aae-59c9-4706-9e0d-1e5f62ee381c"
  },
  {
    "element-6066-11e4-a52e-4f735466cecf": "66fb00e3-0995-4e6b-b9c3-c95e05f4583b"
  },
  {
    "element-6066-11e4-a52e-4f735466cecf": "ef452329-51fd-4b0b-aad9-4641a2599831"
  },
  {
    "element-6066-11e4-a52e-4f735466cecf": "7ee9bfb5-6a3b-410d-9411-7a3d9e268e24"
  },
  {
    "element-6066-11e4-a52e-4f735466cecf": "446fcf24-0cd4-4d40-92de-526bebbec1d4"
  },
  {
    "element-6066-11e4-a52e-4f735466cecf": "6f854092-cdb7-4993-a138-f58fe92404fd"
  },
  {
    "element-6066-11e4-a52e-4f735466cecf": "bf3d5c1d-a7c6-470a-a25c-da3983a5e0c6"
  },
  {
    "element-6066-11e4-a52e-4f735466cecf": "68a12a63-f62a-4b40-bef4-fb637a292e21"
  },
  {
    "element-6066-11e4-a52e-4f735466cecf": "9239bf2b-062f-43b0-8772-356b0a99c1cb"
  },
  {
    "element-6066-11e4-a52e-4f735466cecf": "bbd970a3-1ead-4bb5-8d22-b5366d12178b"
  },
  {
    "element-6066-11e4-a52e-4f735466cecf": "a108aaf5-4687-477b-86b2-0a6f1cb2bd02"
  },
  {
    "element-6066-11e4-a52e-4f735466cecf": "f4d55ca3-f2ba-4d45-8a38-dccfb7849dad"
  },
  {
    "element-6066-11e4-a52e-4f735466cecf": "d2c69376-7993-4dfd-ac8c-01da8fde635a"
  },
  {
    "element-6066-11e4-a52e-4f735466cecf": "b24c3034-cf56-4713-aa59-d071beee3239"
  },
  {
    "element-6066-11e4-a52e-4f735466cecf": "6fcf36d8-0d32-4e9f-a50f-7009fa8bf467"
  },
  {
    "element-6066-11e4-a52e-4f735466cecf": "129f469f-cb23-465b-b01f-cfcc67bdf967"
  },
  {
    "element-6066-11e4-a52e-4f735466cecf": "31c65c19-c3c3-4509-9e76-afdad11cd6bc"
  },
  {
    "element-6066-11e4-a52e-4f735466cecf": "1afc8f9d-2734-44e6-877b-bcaf0122d7f0"
  },
  {
    "element-6066-11e4-a52e-4f735466cecf": "49667fa6-1852-4385-9ab3-7204ce36efbd"
  },
  {
    "element-6066-11e4-a52e-4f735466cecf": "22ec085d-6c27-41f7-ac52-aae09a550e0e"
  },
  {
    "element-6066-11e4-a52e-4f735466cecf": "ecb3800d-33cb-43d8-a079-b6f8a0abe8bb"
  },
  {
    "element-6066-11e4-a52e-4f735466cecf": "dd4bcfed-9d66-4f31-adc8-131ed3ffbb85"
  },
  {
    "element-6066-11e4-a52e-4f735466cecf": "55da193d-260f-423a-9ccc-cb5322086c69"
  },
  {
    "element-6066-11e4-a52e-4f735466cecf": "56984ac9-9802-4576-80f0-b223b4462ed0"
  },
  {
    "element-6066-11e4-a52e-4f735466cecf": "967d987a-8711-4f48-8967-3a4ad3bc4f38"
  },
  {
    "element-6066-11e4-a52e-4f735466cecf": "cb608549-eff8-48b6-b436-1a691190b535"
  },
  {
    "element-6066-11e4-a52e-4f735466cecf": "c74e3b8a-3110-4463-802f-4c659f7fa609"
  },
  {
    "element-6066-11e4-a52e-4f735466cecf": "47ab714f-5cc9-475c-9c7d-5f472fc1244e"
  }
]