{
  "actions": [
    {
      "type": "pointer",
      "id": "pointer1",
      "parameters": {
        "pointerType": "mouse"
      },
      "actions": [
        {
          "type": "pointerMove",
          "origin": {
            "sessionId": "4d3a4b5cde6cc92218db7b1597cff9ef",
            "elementId": "7d4fdccb-1389-48c0-95c4-19261b110b1b",
            "element-6066-11e4-a52e-4f735466cecf": "7d4fdccb-1389-48c0-95c4-19261b110b1b",
            "selector": "svg",
            "parent": {
              "sessionId": "4d3a4b5cde6cc92218db7b1597cff9ef",
              "elementId": "16937b17-411a-4baf-990c-e6d356bcfc1a",
              "element-6066-11e4-a52e-4f735466cecf": "16937b17-411a-4baf-990c-e6d356bcfc1a",
              "selector": "button",
              "parent": {
                "sessionId": "4d3a4b5cde6cc92218db7b1597cff9ef",
                "capabilities": {
                  "acceptInsecureCerts": true,
                  "browserName": "chrome",
                  "browserVersion": "88.0.4324.190",
                  "chrome": {
                    "chromedriverVersion": "88.0.4324.96 (68dba2d8a0b149a1d3afac56fa74648032bcf46b-refs/branch-heads/4324@{#1784})",
                    "userDataDir": "C:\\Users\\atish\\AppData\\Local\\Temp\\scoped_dir15416_1559925902"
                  },
                  "goog:chromeOptions": {
                    "debuggerAddress": "localhost:57234"
                  },
                  "networkConnectionEnabled": false,
                  "pageLoadStrategy": "normal",
                  "platformName": "windows",
                  "proxy": {},
                  "setWindowRect": true,
                  "strictFileInteractability": false,
                  "timeouts": {
                    "implicit": 0,
                    "pageLoad": 300000,
                    "script": 30000
                  },
                  "unhandledPromptBehavior": "dismiss and notify",
                  "webauthn:extension:largeBlob": true,
                  "webauthn:virtualAuthenticators": true,
                  "webdriver.remote.sessionid": "4d3a4b5cde6cc92218db7b1597cff9ef"
                },
                "config": {
                  "specs": [
                    "./features/**/*.feature"
                  ],
                  "suites": {},
                  "exclude": [],
                  "logLevel": "warn",
                  "logLevels": {},
                  "excludeDriverLogs": [],
                  "bail": 0,
                  "waitforInterval": 500,
                  "waitforTimeout": 10000,
                  "framework": "cucumber",
                  "reporters": [
                    "spec",
                    [
                      "allure",
                      {
                        "outputDir": "allure-results"
                      }
                    ]
                  ],
                  "services": [
                    "selenium-standalone"
                  ],
                  "maxInstances": 10,
                  "maxInstancesPerCapability": 100,
                  "filesToWatch": [],
                  "connectionRetryTimeout": 120000,
                  "connectionRetryCount": 3,
                  "execArgv": [],
                  "runnerEnv": {},
                  "runner": "local",
                  "specFileRetries": 0,
                  "specFileRetriesDelay": 0,
                  "specFileRetriesDeferred": false,
                  "reporterSyncInterval": 100,
                  "reporterSyncTimeout": 5000,
                  "cucumberFeaturesWithLineNumbers": [],
                  "autoCompileOpts": {
                    "autoCompile": true,
                    "tsNodeOpts": {
                      "transpileOnly": true
                    },
                    "babelOpts": {}
                  },
                  "mochaOpts": {
                    "timeout": 10000
                  },
                  "jasmineOpts": {
                    "defaultTimeoutInterval": 10000
                  },
                  "cucumberOpts": {
                    "timeout": 60000,
                    "require": [
                      "./features/step-definitions/*.js"
                    ],
                    "backtrace": false,
                    "requireModule": [],
                    "dryRun": false,
                    "failFast": false,
                    "format": [
                      "pretty"
                    ],
                    "snippets": true,
                    "source": true,
                    "profile": [],
                    "strict": false,
                    "tagExpression": "",
                    "ignoreUndefinedDefinitions": false
                  },
                  "onPrepare": [],
                  "onWorkerStart": [],
                  "before": [],
                  "beforeSession": [],
                  "beforeSuite": [],
                  "beforeHook": [],
                  "beforeTest": [],
                  "beforeCommand": [],
                  "afterCommand": [],
                  "afterTest": [],
                  "afterHook": [],
                  "afterSuite": [],
                  "afterSession": [],
                  "after": [],
                  "onComplete": [],
                  "onReload": [],
                  "beforeFeature": [],
                  "beforeScenario": [],
                  "beforeStep": [],
                  "afterStep": [
                    null
                  ],
                  "afterScenario": [],
                  "afterFeature": [],
                  "baseUrl": "https://www.leaseplan.com/en-be/business/showroom/;",
                  "_": [
                    "wdio.conf.js"
                  ],
                  "$0": "node_modules\\@wdio\\cli\\bin\\wdio.js",
                  "ignoredWorkerServices": []
                },
                "_NOT_FIBER": false
              },
              "index": 23,
              "isReactElement": false
            },
            "isReactElement": false
          },
          "x": 0,
          "y": 0
        },
        {
          "type": "pointerDown",
          "button": 0
        },
        {
          "type": "pointerUp",
          "button": 0
        }
      ]
    }
  ]
}