[
  {
    "element-6066-11e4-a52e-4f735466cecf": "c716dc94-908f-43f3-adea-0519d1c9e2f8"
  },
  {
    "element-6066-11e4-a52e-4f735466cecf": "aa9d0629-74bc-495d-91c9-a6d9528bbcd9"
  },
  {
    "element-6066-11e4-a52e-4f735466cecf": "41d67429-c9b8-425a-84f6-156db1a9c784"
  },
  {
    "element-6066-11e4-a52e-4f735466cecf": "47e87a5a-eb71-4318-956b-a8d562fd5099"
  },
  {
    "element-6066-11e4-a52e-4f735466cecf": "571e3358-9f38-4888-8050-1b9423732f7e"
  },
  {
    "element-6066-11e4-a52e-4f735466cecf": "3c2fd02d-d2f4-4d93-89f4-b79fd1b0bf58"
  },
  {
    "element-6066-11e4-a52e-4f735466cecf": "b1079720-1325-40f6-a6b3-123a976423f8"
  },
  {
    "element-6066-11e4-a52e-4f735466cecf": "d4541725-2720-486b-9b0f-6e9e8e7a4170"
  },
  {
    "element-6066-11e4-a52e-4f735466cecf": "06eeb1d9-ec21-465b-b91b-ac1199723965"
  }
]