[
  {
    "element-6066-11e4-a52e-4f735466cecf": "a09329c7-ea1e-46a4-993a-53f565fbc146"
  },
  {
    "element-6066-11e4-a52e-4f735466cecf": "e53c2fb3-7f2c-41bc-9332-d81735bdfc16"
  },
  {
    "element-6066-11e4-a52e-4f735466cecf": "5653e5d5-306b-408f-bf01-d5b0b614da15"
  },
  {
    "element-6066-11e4-a52e-4f735466cecf": "f7993cc7-54b6-468f-9840-2e699201c66c"
  },
  {
    "element-6066-11e4-a52e-4f735466cecf": "7bc176ed-6c85-4759-8557-31a49e395365"
  },
  {
    "element-6066-11e4-a52e-4f735466cecf": "581baa3f-6cac-45bf-8ec1-4908d98c164b"
  },
  {
    "element-6066-11e4-a52e-4f735466cecf": "ec9d2d3a-e66e-46b4-8308-d6c50a1078fc"
  },
  {
    "element-6066-11e4-a52e-4f735466cecf": "b833216d-30aa-4d8d-9812-d0bd81cf57b8"
  },
  {
    "element-6066-11e4-a52e-4f735466cecf": "e375572f-f558-4ad6-a5cb-0588702436ba"
  },
  {
    "element-6066-11e4-a52e-4f735466cecf": "dba1e9ae-9767-4e36-adc3-880092baaef3"
  },
  {
    "element-6066-11e4-a52e-4f735466cecf": "fca43d89-e66f-41c9-8ba6-602ef3820826"
  },
  {
    "element-6066-11e4-a52e-4f735466cecf": "6cffca65-99b3-4a7a-8ca6-62ea4649c27b"
  },
  {
    "element-6066-11e4-a52e-4f735466cecf": "468d1fa5-0f2b-4f8e-86a7-021f72448e95"
  },
  {
    "element-6066-11e4-a52e-4f735466cecf": "1562d22d-6172-41f9-b936-bb539e670adf"
  },
  {
    "element-6066-11e4-a52e-4f735466cecf": "c968f100-4a0d-41a8-98d8-f321b67dff1a"
  },
  {
    "element-6066-11e4-a52e-4f735466cecf": "8208135b-0ef8-4f3a-99f5-a8019e4bc961"
  },
  {
    "element-6066-11e4-a52e-4f735466cecf": "4918e1da-b31f-41d4-9950-a89721e2c115"
  },
  {
    "element-6066-11e4-a52e-4f735466cecf": "ab0b29f8-a8ae-4d86-8eba-c938d6b28e71"
  },
  {
    "element-6066-11e4-a52e-4f735466cecf": "2218a830-250e-4b62-b779-9cae834afacf"
  },
  {
    "element-6066-11e4-a52e-4f735466cecf": "64ccd6f2-be45-48e5-8c2c-961733f024dc"
  },
  {
    "element-6066-11e4-a52e-4f735466cecf": "abac6440-5d32-430d-9e40-bd7f16903787"
  },
  {
    "element-6066-11e4-a52e-4f735466cecf": "0d16e449-674f-4ade-b392-f4828f74cf35"
  },
  {
    "element-6066-11e4-a52e-4f735466cecf": "ae5a8234-013c-407a-944f-0db2540836a3"
  },
  {
    "element-6066-11e4-a52e-4f735466cecf": "2041a2ea-1cc6-4ced-bd01-8db734d5e35f"
  },
  {
    "element-6066-11e4-a52e-4f735466cecf": "ebf63f10-f0e4-4dae-92c8-722c29fe5a15"
  },
  {
    "element-6066-11e4-a52e-4f735466cecf": "69b31bff-ea80-42c8-a9ec-f684022eb985"
  },
  {
    "element-6066-11e4-a52e-4f735466cecf": "bf52eb14-22d7-4431-bff2-cfeeb08a479d"
  },
  {
    "element-6066-11e4-a52e-4f735466cecf": "d75146e8-f8c9-4e0b-8584-38626e0c9218"
  },
  {
    "element-6066-11e4-a52e-4f735466cecf": "0eba767a-7a50-4c15-bab8-df6d38a3e2aa"
  },
  {
    "element-6066-11e4-a52e-4f735466cecf": "8099c446-6ff4-4e1d-8b26-4cc396252d43"
  },
  {
    "element-6066-11e4-a52e-4f735466cecf": "9e31bea9-8739-46dc-bf7b-328c6a641997"
  },
  {
    "element-6066-11e4-a52e-4f735466cecf": "f2b605e9-613d-4b0d-822c-dfbe2d7f91df"
  },
  {
    "element-6066-11e4-a52e-4f735466cecf": "ff0d6c7a-b187-4e28-af60-43caccec00ca"
  },
  {
    "element-6066-11e4-a52e-4f735466cecf": "225f800b-f37f-4154-8693-4ad9c12eef49"
  },
  {
    "element-6066-11e4-a52e-4f735466cecf": "2dcdbc46-1a01-4e70-b3c0-b574e9233ad4"
  },
  {
    "element-6066-11e4-a52e-4f735466cecf": "4045b838-b8de-4a67-981b-54a825247ebe"
  },
  {
    "element-6066-11e4-a52e-4f735466cecf": "1d011650-a34e-457a-8a95-7b0878f85b80"
  },
  {
    "element-6066-11e4-a52e-4f735466cecf": "77c4cfcc-ba91-48ef-b6a6-e889afb93423"
  },
  {
    "element-6066-11e4-a52e-4f735466cecf": "364b4137-0b72-4927-97b5-5415410e73c7"
  },
  {
    "element-6066-11e4-a52e-4f735466cecf": "6972cd3c-b015-42df-95de-1a17988ed172"
  },
  {
    "element-6066-11e4-a52e-4f735466cecf": "eb68e7d4-25d7-4091-b553-18dab440c3d1"
  }
]